STA 321 Logistic Regression Project: Predicting a Patient’s Odds of CHD
…
class: inverse1 center middle 

## **diaBP** Distribution

<img src="Week4Presentation_files/figure-html/unnamed-chunk-5-1.png" width="600px" style="display: block; margin: auto;" />

---

class: inverse1 center middle 

# Complete Table of the Data Set

```
# A tibble: 4,238 × 16
    male   age education currentSmoker cigsPerDay BPMeds prevalentStroke
   <int> <int>     <int>         <int>      <int>  <int>           <int>
 1     1    39         4             0          0      0               0
 2     0    46         2             0          0      0               0
 3     1    48         1             1         20      0               0
 4     0    61         3             1         30      0               0
 5     0    46         3             1         23      0               0
 6     0    43         2             0          0      0               0
 7     0    63         1             0          0      0               0
 8     0    45         2             1         20      0               0
 9     1    52         1             0          0      0               0
10     1    43         1             1         30      0               0
# ℹ 4,228 more rows
# ℹ 9 more variables: prevalentHyp <int>, diabetes <int>, totChol <int>,
#   sysBP <dbl>, diaBP <dbl>, BMI <dbl>, heartRate <int>, glucose <int>,
#   TenYearCHD <int>
```
…
